{
  "dsMySql": {
    "name": "dsMySql",
    "connector": "mysql",
    "host": "epat.zigron.com",
    "port": 3306,
    "database": "epat",
    "user": "epat",
    "password": "zigron123"
  },
  "emailDs": {
    "name": "emailDs",
    "connector": "mail",
    "transports": [
      {
        "type": "smtp",
        "host": "smtp.gmail.com",
        "secure": true,
        "port": 465,
        "tls": {
          "rejectUnauthorized": false
        },
        "auth": {
          "user": "epat@zigron.com",
          "pass": "Zigron123"
        }
      }
    ]
  },
  "dsIESCO": {
    "name": "dsIESCO",
    "connector": "rest",
    "operations": [
      {
        "template": {
          "method": "GET",
          "url": "http://210.56.23.106:888/iescobill/netbill/gbill.asp",
          "headers": {
            "accepts": "text/html"
          },
          "query": {
            "qstr1": "{referenceNo}"
          }
        },
        "functions": {
          "getBill": [
            "referenceNo"
          ]
        }
      }
    ]
  },
  "push": {
    "name": "push",
    "connector": "loopback-component-push",
    "installation": "installation",
    "notification": "notification",
    "application": "application"
  },
  "dsCal": {
    "name": "dsCal",
    "connector": "rest",
    "operations": [
      {
        "template": {
          "method": "POST",
          "url": "http://64.17.175.168/Modules/BillCalc/CalculateBill.asp",
          "headers": {
            "accepts": "text/html"
          },
          "query": {
            "selPhase": "{phase}",
            "selConn": "{conn}",
            "txtUnits": "{units}",
            "txtMR": "0",
            "txtSR": "0",
            "txtInst": "0",
            "txtUnpDebt": "0",
            "txtArears": "0",
            "chkPTVFee": true,
            "Submit": "Submit"
          }
        },
        "functions": {
          "getProjectedBill": [
            "phase",
            "conn",
            "units"
          ]
        }
      }
    ]
  }
}
